%YAML 1.1
%TAG !u! tag:unity3d.com,2011:
--- !u!1001 &7136366014219152302
PrefabInstance:
  m_ObjectHideFlags: 0
  serializedVersion: 2
  m_Modification:
    m_TransformParent: {fileID: 0}
    m_Modifications:
    - target: {fileID: 1088645147966298, guid: 8b726401e0b1f754fbf92a06423a865a, type: 3}
      propertyPath: m_Name
      value: RightPositionPrefab Variant
      objectReference: {fileID: 0}
    - target: {fileID: 4270476248837866, guid: 8b726401e0b1f754fbf92a06423a865a, type: 3}
      propertyPath: m_LocalPosition.x
      value: -8.512363
      objectReference: {fileID: 0}
    - target: {fileID: 4270476248837866, guid: 8b726401e0b1f754fbf92a06423a865a, type: 3}
      propertyPath: m_LocalPosition.y
      value: -14.71
      objectReference: {fileID: 0}
    - target: {fileID: 4270476248837866, guid: 8b726401e0b1f754fbf92a06423a865a, type: 3}
      propertyPath: m_LocalPosition.z
      value: 0
      objectReference: {fileID: 0}
    - target: {fileID: 4270476248837866, guid: 8b726401e0b1f754fbf92a06423a865a, type: 3}
      propertyPath: m_LocalRotation.x
      value: -0
      objectReference: {fileID: 0}
    - target: {fileID: 4270476248837866, guid: 8b726401e0b1f754fbf92a06423a865a, type: 3}
      propertyPath: m_LocalRotation.y
      value: -0
      objectReference: {fileID: 0}
    - target: {fileID: 4270476248837866, guid: 8b726401e0b1f754fbf92a06423a865a, type: 3}
      propertyPath: m_LocalRotation.z
      value: -0
      objectReference: {fileID: 0}
    - target: {fileID: 4270476248837866, guid: 8b726401e0b1f754fbf92a06423a865a, type: 3}
      propertyPath: m_LocalRotation.w
      value: 1
      objectReference: {fileID: 0}
    - target: {fileID: 4270476248837866, guid: 8b726401e0b1f754fbf92a06423a865a, type: 3}
      propertyPath: m_RootOrder
      value: 0
      objectReference: {fileID: 0}
    - target: {fileID: 4270476248837866, guid: 8b726401e0b1f754fbf92a06423a865a, type: 3}
      propertyPath: m_LocalEulerAnglesHint.x
      value: 0
      objectReference: {fileID: 0}
    - target: {fileID: 4270476248837866, guid: 8b726401e0b1f754fbf92a06423a865a, type: 3}
      propertyPath: m_LocalEulerAnglesHint.y
      value: 0
      objectReference: {fileID: 0}
    - target: {fileID: 4270476248837866, guid: 8b726401e0b1f754fbf92a06423a865a, type: 3}
      propertyPath: m_LocalEulerAnglesHint.z
      value: 0
      objectReference: {fileID: 0}
    - target: {fileID: 8500329136268836805, guid: 8b726401e0b1f754fbf92a06423a865a,
        type: 3}
      propertyPath: m_Color.r
      value: 0.16078432
      objectReference: {fileID: 0}
    - target: {fileID: 8500329136268836805, guid: 8b726401e0b1f754fbf92a06423a865a,
        type: 3}
      propertyPath: m_Color.g
      value: 0.15686275
      objectReference: {fileID: 0}
    - target: {fileID: 8500329136268836805, guid: 8b726401e0b1f754fbf92a06423a865a,
        type: 3}
      propertyPath: m_Color.b
      value: 0.15686275
      objectReference: {fileID: 0}
    - target: {fileID: 8500329136268836805, guid: 8b726401e0b1f754fbf92a06423a865a,
        type: 3}
      propertyPath: m_Color.a
      value: 0.84313726
      objectReference: {fileID: 0}
    - target: {fileID: 8500329136268836805, guid: 8b726401e0b1f754fbf92a06423a865a,
        type: 3}
      propertyPath: m_Sprite
      value: 
      objectReference: {fileID: 21300000, guid: 88924534b9ea345778719b733ed99479,
        type: 3}
    - target: {fileID: 212880582510070236, guid: 8b726401e0b1f754fbf92a06423a865a,
        type: 3}
      propertyPath: m_Color.r
      value: 0.24122153
      objectReference: {fileID: 0}
    - target: {fileID: 212880582510070236, guid: 8b726401e0b1f754fbf92a06423a865a,
        type: 3}
      propertyPath: m_Color.g
      value: 0.754717
      objectReference: {fileID: 0}
    - target: {fileID: 212880582510070236, guid: 8b726401e0b1f754fbf92a06423a865a,
        type: 3}
      propertyPath: m_Color.b
      value: 0.21003917
      objectReference: {fileID: 0}
    - target: {fileID: 212880582510070236, guid: 8b726401e0b1f754fbf92a06423a865a,
        type: 3}
      propertyPath: m_Sprite
      value: 
      objectReference: {fileID: 21300000, guid: 88924534b9ea345778719b733ed99479,
        type: 3}
    m_RemovedComponents: []
  m_SourcePrefab: {fileID: 100100000, guid: 8b726401e0b1f754fbf92a06423a865a, type: 3}
