%YAML 1.1
%TAG !u! tag:unity3d.com,2011:
--- !u!114 &11400000
MonoBehaviour:
  m_ObjectHideFlags: 0
  m_CorrespondingSourceObject: {fileID: 0}
  m_PrefabInternal: {fileID: 0}
  m_GameObject: {fileID: 0}
  m_Enabled: 1
  m_EditorHideFlags: 0
  m_Script: {fileID: 11500000, guid: 54d21f6ece3b46479f0c328f8c6007e0, type: 3}
  m_Name: Gold
  m_EditorClassIdentifier: 
  topLeft: {r: 0.9716981, g: 0.951232, b: 0, a: 0.9098039}
  topRight: {r: 0.9056604, g: 0.8038625, b: 0, a: 0.85882354}
  bottomLeft: {r: 1, g: 0.7027648, b: 0, a: 0.9529412}
  bottomRight: {r: 0.8773585, g: 0.66086745, b: 0, a: 1}
